<?xml version="1.0" encoding="utf-8"?>
<!-- Generator: Adobe Illustrator 21.1.0, SVG Export Plug-In . SVG Version: 6.00 Build 0)  -->
<svg version="1.1" id="Layer_1" xmlns="http://www.w3.org/2000/svg" xmlns:xlink="http://www.w3.org/1999/xlink" x="0px" y="0px"
	 viewBox="0 0 24 24" style="enable-background:new 0 0 24 24;" xml:space="preserve">
<path d="M12,23C5.9,23,1,18.1,1,12C1,5.9,5.9,1,12,1s11,4.9,11,11C23,18.1,18.1,23,12,23z M12,3c-5,0-9,4-9,9s4,9,9,9c5,0,9-4,9-9
	S17,3,12,3z"/>
<path d="M16,13c-0.3,0-0.5-0.1-0.7-0.3L12,9.4l-3.3,3.3c-0.4,0.4-1,0.4-1.4,0c-0.4-0.4-0.4-1,0-1.4l4-4c0.4-0.4,1-0.4,1.4,0l4,4
	c0.4,0.4,0.4,1,0,1.4C16.5,12.9,16.3,13,16,13z"/>
<path d="M12,17c-0.6,0-1-0.4-1-1V8c0-0.6,0.4-1,1-1s1,0.4,1,1v8C13,16.6,12.6,17,12,17z"/>
</svg>
