<?xml version="1.0" encoding="utf-8"?>
<!-- Generator: Adobe Illustrator 21.1.0, SVG Export Plug-In . SVG Version: 6.00 Build 0)  -->
<svg version="1.1" id="Layer_1" xmlns="http://www.w3.org/2000/svg" xmlns:xlink="http://www.w3.org/1999/xlink" x="0px" y="0px"
	 viewBox="0 0 50 100" style="enable-background:new 0 0 50 100;" xml:space="preserve">
<polygon points="42.2,73.1 25,89.2 7.8,73.1 22.6,73.1 22.6,11.5 27.4,11.5 27.4,73.1 "/>
<path d="M77.4,93.4"/>
</svg>
