<?xml version="1.0" encoding="utf-8"?>
<!-- Generator: Adobe Illustrator 21.1.0, SVG Export Plug-In . SVG Version: 6.00 Build 0)  -->
<svg version="1.1" id="Layer_1" xmlns="http://www.w3.org/2000/svg" xmlns:xlink="http://www.w3.org/1999/xlink" x="0px" y="0px"
	 viewBox="0 0 24 24" style="enable-background:new 0 0 24 24;" xml:space="preserve">
<path d="M23,11h-6c-0.6,0-1-0.4-1-1s0.4-1,1-1h5V4c0-0.6,0.4-1,1-1s1,0.4,1,1v6C24,10.6,23.6,11,23,11z"/>
<path d="M12,22c-1.1,0-2.2-0.2-3.3-0.6c-2.5-0.9-4.5-2.7-5.7-5.1c-1.2-2.4-1.3-5.1-0.4-7.6c1.8-5.2,7.6-7.9,12.8-6.1
	c1.4,0.5,2.7,1.3,3.7,2.4l4.6,4.3c0.4,0.4,0.4,1,0,1.4c-0.4,0.4-1,0.4-1.4,0l-4.6-4.4c-0.9-0.9-1.9-1.5-3-1.9
	c-2-0.7-4.2-0.6-6.1,0.3C6.6,5.7,5.2,7.3,4.5,9.3c-0.7,2-0.6,4.2,0.3,6.1c0.9,1.9,2.5,3.4,4.6,4.1c4.2,1.5,8.7-0.7,10.2-4.9
	c0.2-0.5,0.8-0.8,1.3-0.6c0.5,0.2,0.8,0.8,0.6,1.3C20,19.4,16.1,22,12,22z"/>
</svg>
