<?xml version="1.0" encoding="utf-8"?>
<!-- Generator: Adobe Illustrator 21.1.0, SVG Export Plug-In . SVG Version: 6.00 Build 0)  -->
<svg version="1.1" id="Layer_1" xmlns="http://www.w3.org/2000/svg" xmlns:xlink="http://www.w3.org/1999/xlink" x="0px" y="0px"
	 viewBox="0 0 24 24" style="enable-background:new 0 0 24 24;" xml:space="preserve">
<path d="M23,18c-0.2,0-0.4-0.1-0.6-0.2l-7-5C15.2,12.6,15,12.3,15,12s0.2-0.6,0.4-0.8l7-5c0.3-0.2,0.7-0.2,1-0.1
	C23.8,6.3,24,6.6,24,7v10c0,0.4-0.2,0.7-0.5,0.9C23.3,18,23.2,18,23,18z M17.7,12l4.3,3.1V8.9L17.7,12z"/>
<path d="M14,20H3c-1.7,0-3-1.3-3-3V7c0-1.7,1.3-3,3-3h11c1.7,0,3,1.3,3,3v10C17,18.7,15.7,20,14,20z M3,6C2.4,6,2,6.4,2,7v10
	c0,0.6,0.4,1,1,1h11c0.6,0,1-0.4,1-1V7c0-0.6-0.4-1-1-1H3z"/>
</svg>
