<?xml version="1.0" encoding="utf-8"?>
<!-- Generator: Adobe Illustrator 21.1.0, SVG Export Plug-In . SVG Version: 6.00 Build 0)  -->
<svg version="1.1" id="Layer_1" xmlns="http://www.w3.org/2000/svg" xmlns:xlink="http://www.w3.org/1999/xlink" x="0px" y="0px"
	 viewBox="0 0 24 24" style="enable-background:new 0 0 24 24;" xml:space="preserve">
<path d="M11,23c-0.1,0-0.3,0-0.4-0.1c-0.4-0.2-0.6-0.6-0.6-1l0.9-6.9H3c-0.4,0-0.7-0.2-0.9-0.6c-0.2-0.4-0.1-0.8,0.1-1.1l10-12
	C12.5,1,13,0.9,13.4,1.1c0.4,0.2,0.6,0.6,0.6,1L13.1,9H21c0.4,0,0.7,0.2,0.9,0.6c0.2,0.4,0.1,0.8-0.1,1.1l-10,12
	C11.6,22.9,11.3,23,11,23z M5.1,13H12c0.3,0,0.6,0.1,0.7,0.3c0.2,0.2,0.3,0.5,0.2,0.8l-0.6,4.6l6.4-7.7H12c-0.3,0-0.6-0.1-0.7-0.3
	c-0.2-0.2-0.3-0.5-0.2-0.8l0.6-4.6L5.1,13z"/>
</svg>
