<?xml version="1.0" encoding="utf-8"?>
<!-- Generator: Adobe Illustrator 21.1.0, SVG Export Plug-In . SVG Version: 6.00 Build 0)  -->
<svg version="1.1" id="Layer_1" xmlns="http://www.w3.org/2000/svg" xmlns:xlink="http://www.w3.org/1999/xlink" x="0px" y="0px"
	 viewBox="0 0 50 50" style="enable-background:new 0 0 50 50;" xml:space="preserve">
<style type="text/css">
	.st0{fill:#3D3D3C;}
</style>
<g>
	<path class="st0" d="M36.5,45.3c0,2.6-2,4.7-4.4,4.7H17.9c-2.4,0-4.4-2.1-4.4-4.7V20.8c0-2.6,2-4.7,4.4-4.7h14.3
		c2.4,0,4.4,2.1,4.4,4.7V45.3z"/>
	<path class="st0" d="M32.9,14.5v-3.9c0-0.6-0.5-1.1-1.1-1.1H18.2c-0.6,0-1.1,0.5-1.1,1.1v3.9H32.9z"/>
	<polygon class="st0" points="23.9,0 23,8.2 27,8.2 26.1,0 	"/>
</g>
</svg>
